 pt 100.000000;100.000000 cop;clr=4.000000;4.000000
  seg convex 0:
   arc cvx use=0 4.000000:4.107162 -> 1.210455 [4.107162 5.317616]
   arc cvx use=1 12.000000:5.317616 -> -1.210455 [4.107162 5.317616] tn=6
 pt 50.000000;120.000000 cop;clr=4.000000;4.000000
 pt 150.000000;120.000000 cop;clr=4.000000;4.000000
 twonet 4
 twonet 6
  arc cvx use=1 center=150.000000;120.000000 r=0.000000 a=-2.536365;0.000000
  line 150.000000;120.000000 .. 106.827389;90.131527
  arc cvx use=1 center=100.000000;100.000000 r=12.000000 a=5.317616;-1.210455
