 pt 100.000000;100.000000 cop;clr=4.000000;4.000000
 pt 50.000000;120.000000 cop;clr=4.000000;4.000000
 pt 150.000000;120.000000 cop;clr=4.000000;4.000000
 pt 100.000000;60.000000 cop;clr=4.000000;4.000000
 twonet 5
  arc cvx use=1 center=100.000000;60.000000 r=0.000000 a=1.570796;0.000000
  line 100.000000;60.000000 .. 100.000000;100.000000
  arc cvx use=1 center=100.000000;100.000000 r=0.000000 a=-1.570796;0.000000
 twonet 9
 twonet 11
