 pt 10.000000;100.000000 cop;clr=1.500000;1.000000
 pt 30.000000;50.000000 cop;clr=1.500000;1.000000
 pt 60.000000;50.000000 cop;clr=1.500000;1.000000
 pt 90.000000;100.000000 cop;clr=1.500000;1.000000
 twonet 5
  arc cvx use=1 center=90.000000;100.000000 r=0.000000 a=3.141593;0.000000
  line 90.000000;100.000000 .. 10.000000;100.000000
  arc cvx use=1 center=10.000000;100.000000 r=0.000000 a=0.000000;0.000000
